…
#### Exploratory analysis

First, let’s look at the frequency of words. For that, we apply
`group_by()` and `summarize()` to the tokens dataset to find out the
frequency:

``` r
capitol_tokens %>%
  group_by(word) %>%
  summarize(occurrence = sum(n)) %>%
  arrange(desc(occurrence))
```

    ## # A tibble: 68,859 × 2
    ##    word      occurrence
    ##    <list>         <int>
    ##  1 <chr [1]>      10533
    ##  2 <chr [1]>       9437
    ##  3 <chr [1]>       7857
    ##  4 <chr [1]>       7817
    ##  5 <chr [1]>       6956
    ##  6 <chr [1]>       6170
    ##  7 <chr [1]>       5998
    ##  8 <chr [1]>       4689
    ##  9 <chr [1]>       4248
    ## 10 <chr [1]>       4175
    ## # … with 68,849 more rows
…
Below, we can see the list of words by frequency. We notice that there
is a “first tier” of frequency containing the words “trump” and “storm,”
then “build,” and “us,” as the most frequent ones. “Storm,” “build,” and
“polic” represent word stems, so words like “building” are within the
“build” term, for example.

``` r
(tokens_words %>%
  group_by(word) %>%
  arrange(desc(N))
)
```

    ## # A tibble: 68,859 × 2
    ## # Groups:   word [68,859]
    ##    word        N
    ##    <chr>   <int>
    ##  1 trump    9426
    ##  2 storm    9348
    ##  3 build    7593
    ##  4 us       7406
    ##  5 polic    6351
    ##  6 today    5899
    ##  7 peopl    5317
    ##  8 protest  4500
    ##  9 support  4034
    ## 10 shot     3996
    ## # … with 68,849 more rows
…
One other nlp task we can implement is identifying words associated with
each “polarity” (positive and negative):

``` r
nrc_positive <- get_sentiments("nrc") %>%
  filter(sentiment == "positive")

tokens_words %>%
  inner_join(nrc_positive) %>%
  arrange(desc(N))
```

    ## Joining, by = "word"

    ## # A tibble: 574 × 3
    ##    word        N sentiment
    ##    <chr>   <int> <chr>    
    ##  1 build    7593 positive 
    ##  2 elect    1910 positive 
    ##  3 guard    1089 positive 
    ##  4 vote     1025 positive 
    ##  5 leader    740 positive 
    ##  6 protect   726 positive 
    ##  7 count     673 positive 
    ##  8 love      670 positive 
    ##  9 actual    664 positive 
    ## 10 govern    647 positive 
    ## # … with 564 more rows
…
``` r
nrc_negative <- get_sentiments("nrc") %>%
  filter(sentiment == "negative")

tokens_words %>%
  inner_join(nrc_negative) %>%
  arrange(desc(N))
```

    ## Joining, by = "word"

    ## # A tibble: 901 × 3
    ##    word          N sentiment
    ##    <chr>     <int> <chr>    
    ##  1 storm      9348 negative 
    ##  2 shot       3996 negative 
    ##  3 terrorist  3379 negative 
    ##  4 die        2558 negative 
    ##  5 mob        2332 negative 
    ##  6 riot       2124 negative 
    ##  7 breach     2013 negative 
    ##  8 attack     1999 negative 
    ##  9 arrest     1958 negative 
    ## 10 violent    1315 negative 
    ## # … with 891 more rows
…
